......
----------------------------------------------------------------------
Ran 6 tests in 0.002s

OK
Name               Stmts   Miss Branch BrPart  Cover   Missing
--------------------------------------------------------------
Diplomacy.py          41      0     28      2    97%   56->58, 68->63
TestDiplomacy.py      36      0      2      0   100%
--------------------------------------------------------------
TOTAL                 77      0     30      2    98%
