...
----------------------------------------------------------------------
Ran 3 tests in 0.000s

OK
Name               Stmts   Miss Branch BrPart  Cover   Missing
--------------------------------------------------------------
Diplomacy.py          84      0     60      1    99%   90->72
TestDiplomacy.py      19      0      0      0   100%
--------------------------------------------------------------
TOTAL                103      0     60      1    99%
