.........................
----------------------------------------------------------------------
Ran 25 tests in 0.015s

OK
Name               Stmts   Miss Branch BrPart  Cover   Missing
--------------------------------------------------------------
Diplomacy.py          77      0     34      0   100%
TestDiplomacy.py     108      0      0      0   100%
--------------------------------------------------------------
TOTAL                185      0     34      0   100%
