......
----------------------------------------------------------------------
Ran 6 tests in 0.001s

OK
Name               Stmts   Miss Branch BrPart  Cover   Missing
--------------------------------------------------------------
Diplomacy.py          67      1     40      1    98%   16, 25->27
TestDiplomacy.py      41      0      0      0   100%
--------------------------------------------------------------
TOTAL                108      1     40      1    99%
